example/example3.vcd
$date
	Fri Aug 13 18:53:53 2021
$end

$version
	Synopsys VCS version R-2020.12-SP1_Full64
$end

$timescale
	1s
$end

$comment Csum: 1 b688ffef5412d3f5 $end


$scope module Test_MIPS $end
$var reg 1 ! clk $end
$var reg 1 " rst_n $end

$scope module core $end
$var wire 1 # clk $end
$var wire 1 $ rst_n $end
$var reg 32 % pc [31:0] $end
$var reg 32 & pc_next [31:0] $end
$var wire 32 ' inst [31:0] $end
$var reg 32 ( immed [31:0] $end
$var reg 5 ) wreg [4:0] $end
$var reg 32 * wdata [31:0] $end
$var wire 32 + sdata [31:0] $end
$var wire 32 , tdata [31:0] $end
$var wire 3 - op [2:0] $end
$var reg 32 . alu_in1 [31:0] $end
$var reg 32 / alu_in2 [31:0] $end
$var wire 32 0 alu_out [31:0] $end
$var wire 1 1 zero $end
$var wire 32 2 rdata [31:0] $end
$var wire 1 3 alu_src $end
$var wire 1 4 alu_shift $end
$var wire 1 5 branch $end
$var wire 1 6 mem_to_reg $end
$var wire 1 7 mem_read $end
$var wire 1 8 mem_write $end
$var wire 1 9 reg_dst $end
$var wire 1 : reg_write $end

$scope module inst_mem $end
$var wire 32 ; addr [31:0] $end
$var reg 32 < rdata [31:0] $end
$upscope $end


$scope module reg_file $end
$var wire 1 # clk $end
$var wire 1 $ rst_n $end
$var wire 1 : write $end
$var wire 5 = sreg [4:0] $end
$var wire 5 > treg [4:0] $end
$var wire 5 ? wreg [4:0] $end
$var wire 32 @ wdata [31:0] $end
$var reg 32 A sdata [31:0] $end
$var reg 32 B tdata [31:0] $end
$var reg 5 C wreg_next [4:0] $end
$var reg 32 D wdata_next [31:0] $end
$var integer 32 E i $end
$upscope $end


$scope module alu $end
$var wire 3 - op [2:0] $end
$var wire 32 F in1 [31:0] $end
$var wire 32 G in2 [31:0] $end
$var reg 32 H out [31:0] $end
$var reg 1 I zero $end
$upscope $end


$scope module control $end
$var wire 6 J opcode [5:0] $end
$var wire 6 K funct [5:0] $end
$var reg 3 L alu_op [2:0] $end
$var reg 1 M alu_src $end
$var reg 1 N alu_shift $end
$var reg 1 O branch $end
$var reg 1 P mem_to_reg $end
$var reg 1 Q mem_read $end
$var reg 1 R mem_write $end
$var reg 1 S reg_dst $end
$var reg 1 T reg_write $end
$upscope $end


$scope module mem $end
$var wire 1 # clk $end
$var wire 1 $ rst_n $end
$var wire 1 7 read $end
$var wire 32 0 raddr [31:0] $end
$var reg 32 U rdata [31:0] $end
$var wire 1 8 write $end
$var wire 32 0 waddr [31:0] $end
$var wire 32 , wdata [31:0] $end
$var reg 1 V write_next $end
$var reg 32 W waddr_next [31:0] $end
$var reg 32 X wdata_next [31:0] $end
$var integer 32 Y i $end
$upscope $end

$upscope $end

$upscope $end

$enddefinitions $end

#0
$dumpvars
0I
04
13
05
1!
0N
1M
0O
0Q
0P
0R
0S
1T
0$
b011011 K
07
06
08
09
1:
0"
bzzzzzz J
bzzzzz =
bzzzzz >
0V
01
b00000000000000000000000000000000 ;
b00000000000000000000000000000000 .
b00000000000000000000000000011011 /
b010 L
b00000000000000000000000000011011 0
b00000000000000000000000000100000 E
b00000000000000000000000000011011 (
b00000000000000000000000000000000 F
b00000000000000000000000000011011 G
b00100000000010000000000000011011 '
b00100000000010000000000000011011 <
b00000000000000000000010000000000 Y
b00000000000000000000000000000000 U
b00000000000000000000000000000000 X
b010 -
b00000000000000000000000000011011 H
b00000000000000000000000000000000 %
b00000000000000000000000000000100 &
b00000000000000000000000000000000 2
b00000000000000000000000000000000 A
b00000000000000000000000000000000 B
b00000000000000000000000000011011 @
b01000 ?
b00000000000000000000000000000000 +
b00000000000000000000000000000000 ,
b00000000000000000000000000000000 W
b00000000000000000000000000011011 *
b00000000000000000000000000011011 D
b01000 )
b01000 C
1#
$end
b001000 J
b00000 =
b01000 >
#1
0!
0#
#2
1!
1#
#3
0!
0#
#4
1"
1$
1!
1#
b00000000000000000000000000000100 %
b00000000000000000000000000000100 ;
b00000000000000000000000000001000 &
b00000000000000000100100000100000 <
b00000000000000000100100000100000 '
b000000 J
b00000 =
b00000 >
b100000 K
b00000000000000000100100000100000 (
b00000 )
b00000 ?
b00000000000000000100100000100000 /
b00000000000000000100100000100000 G
0M
03
1S
19
b01001 )
b01001 ?
b00000000000000000000000000000000 /
b00000000000000000000000000000000 G
b01001 C
1I
11
b00000000000000000000000000000000 H
b00000000000000000000000000000000 0
b00000000000000000000000000000000 *
b00000000000000000000000000000000 @
b00000000000000000000000000000000 D
#5
0!
0#
#6
1!
1#
b00000000000000000000000000001000 %
b00000000000000000000000000001000 ;
b00000000000000000000000000001100 &
b00000000000010010101000010000000 <
b00000000000010010101000010000000 '
b000000 J
b00000 =
b01001 >
b000000 K
b00000000000000000101000010000000 (
b01010 )
b01010 ?
b01010 C
b100 L
b100 -
1N
14
b00000000000000000000000000000010 .
b00000000000000000000000000000010 F
#7
0!
0#
#8
1!
1#
b00000000000000000000000000001100 %
b00000000000000000000000000001100 ;
b00000000000000000000000000010000 &
b10101101010010000000000000000000 <
b10101101010010000000000000000000 '
b101011 J
b01010 =
b01000 >
b00000000000000000000000000000000 (
b00000 )
b00000 ?
b00000000000000000000000000000000 .
b00000000000000000000000000000000 F
b010 L
b010 -
1M
13
0N
04
1R
18
0S
09
0T
0:
b00000000000000000000000000011011 B
b00000000000000000000000000011011 ,
b00000 C
b01000 )
b01000 ?
1V
b00000000000000000000000000011011 X
#9
0!
0#
#10
1!
1#
b00000000000000000000000000010000 %
b00000000000000000000000000010000 ;
b00000000000000000000000000010100 &
b00000000000010000101000001000010 <
b00000000000010000101000001000010 '
b000000 J
b00000 =
b01000 >
b000010 K
b00000000000000000101000001000010 (
b00000000000000000101000001000010 /
b00000000000000000101000001000010 G
b101 L
b101 -
0M
03
1N
14
0R
08
1S
19
1T
1:
b01000 C
0V
b00000000000000000000000000000000 X
b01010 )
b01010 ?
b00000000000000000000000000000001 .
b00000000000000000000000000000001 F
b00000000000000000000000000011011 /
b00000000000000000000000000011011 G
0I
01
b00000000000000000000000000001101 H
b00000000000000000000000000001101 0
b01010 C
b00000000000000000000000000001101 *
b00000000000000000000000000001101 @
b00000000000000000000000000001101 D
#11
0!
0#
#12
1!
1#
b00000000000000000000000000010100 %
b00000000000000000000000000010100 ;
b00000000000000000000000000011000 &
b00000000000010100101100001000000 <
b00000000000010100101100001000000 '
b000000 J
b00000 =
b01010 >
b000000 K
b00000000000000000101100001000000 (
b01011 )
b01011 ?
b00000000000000000000000000001101 B
b00000000000000000000000000001101 ,
b01011 C
b100 L
b100 -
b00000000000000000000000000001101 /
b00000000000000000000000000001101 G
b00000000000000000000000000011010 H
b00000000000000000000000000011010 0
b00000000000000000000000000011010 *
b00000000000000000000000000011010 @
b00000000000000000000000000011010 D
#13
0!
0#
#14
1!
1#
b00000000000000000000000000011000 %
b00000000000000000000000000011000 ;
b00000000000000000000000000011100 &
b00010001000010110000000000000011 <
b00010001000010110000000000000011 '
b000100 J
b01000 =
b01011 >
b000011 K
b00000000000000000000000000000011 (
b00000 )
b00000 ?
b00000000000000000000000000000000 .
b00000000000000000000000000000000 F
b110 L
b110 -
0N
04
1O
15
0S
09
0T
0:
b00000000000000000000000000011011 A
b00000000000000000000000000011011 +
b00000000000000000000000000011010 B
b00000000000000000000000000011010 ,
b00000 C
b00000000000000000000000000000000 D
b01011 )
b01011 ?
b00000000000000000000000000011011 .
b00000000000000000000000000011011 F
b00000000000000000000000000011010 /
b00000000000000000000000000011010 G
b00000000000000000000000000000001 H
b00000000000000000000000000000001 0
b00000000000000000000000000000001 *
b00000000000000000000000000000001 @
#15
0!
0#
#16
1!
1#
b00000000000000000000000000011100 %
b00000000000000000000000000011100 ;
b00000000000000000000000000100000 &
b00000000000010000101000001000000 <
b00000000000010000101000001000000 '
b000000 J
b00000 =
b01000 >
b000000 K
b00000000000000000101000001000000 (
b01000 )
b01000 ?
b100 L
b100 -
1N
14
0O
05
1S
19
1T
1:
b00000000000000000000000000000000 A
b00000000000000000000000000000000 +
b00000000000000000000000000011011 B
b00000000000000000000000000011011 ,
b01000 C
b00000000000000000000000000000001 D
b01010 )
b01010 ?
b00000000000000000000000000000001 .
b00000000000000000000000000000001 F
b00000000000000000000000000011011 /
b00000000000000000000000000011011 G
b00000000000000000000000000110110 H
b00000000000000000000000000110110 0
b01010 C
b00000000000000000000000000110110 *
b00000000000000000000000000110110 @
b00000000000000000000000000110110 D
#17
0!
0#
#18
1!
1#
b00000000000000000000000000100000 %
b00000000000000000000000000100000 ;
b00000000000000000000000000100100 &
b00000001010010000101000000100000 <
b00000001010010000101000000100000 '
b000000 J
b01010 =
b01000 >
b100000 K
b00000000000000000101000000100000 (
b00000000000000000000000000000000 .
b00000000000000000000000000000000 F
b00000000000000000000000000110110 A
b00000000000000000000000000110110 +
b010 L
b010 -
0N
04
b00000000000000000000000000110110 .
b00000000000000000000000000110110 F
b00000000000000000000000001010001 H
b00000000000000000000000001010001 0
b00000000000000000000000001010001 *
b00000000000000000000000001010001 @
b00000000000000000000000001010001 D
#19
0!
0#
#20
1!
1#
b00000000000000000000000000100100 %
b00000000000000000000000000100100 ;
b00000000000000000000000000101000 &
b00100001010010100000000000000001 <
b00100001010010100000000000000001 '
b001000 J
b01010 =
b01010 >
b000001 K
b00000000000000000000000001010001 A
b00000000000000000000000001010001 +
b00000000000000000000000001010001 B
b00000000000000000000000001010001 ,
b00000000000000000000000000000001 (
b00000 )
b00000 ?
b00000000000000000000000001010001 .
b00000000000000000000000001010001 F
b00000000000000000000000001010001 /
b00000000000000000000000001010001 G
1M
13
0S
09
b01010 )
b01010 ?
b00000000000000000000000000000001 /
b00000000000000000000000000000001 G
b00000000000000000000000001010010 H
b00000000000000000000000001010010 0
b00000000000000000000000001010010 *
b00000000000000000000000001010010 @
b00000000000000000000000001010010 D
#21
0!
0#
#22
1!
1#
b00000000000000000000000000101000 %
b00000000000000000000000000101000 ;
b00000000000000000000000000101100 &
b00000001010000000100000000100000 <
b00000001010000000100000000100000 '
b000000 J
b01010 =
b00000 >
b100000 K
b00000000000000000000000001010010 A
b00000000000000000000000001010010 +
b00000000000000000000000000000000 B
b00000000000000000000000000000000 ,
b00000000000000000100000000100000 (
b00000 )
b00000 ?
b00000000000000000000000001010010 .
b00000000000000000000000001010010 F
b00000000000000000100000000100000 /
b00000000000000000100000000100000 G
0M
03
1S
19
b01000 )
b01000 ?
b00000000000000000000000000000000 /
b00000000000000000000000000000000 G
b01000 C
#23
0!
0#
#24
1!
1#
b00000000000000000000000000101100 %
b00000000000000000000000000101100 ;
b00000000000000000000000000110000 &
b00100001001010010000000000000001 <
b00100001001010010000000000000001 '
b001000 J
b01001 =
b01001 >
b000001 K
b00000000000000000000000000000001 (
b00000 )
b00000 ?
1M
13
0S
09
b00000000000000000000000000000000 A
b00000000000000000000000000000000 +
b00000 C
b01001 )
b01001 ?
b00000000000000000000000000000000 .
b00000000000000000000000000000000 F
b00000000000000000000000000000001 /
b00000000000000000000000000000001 G
b01001 C
b00000000000000000000000000000001 H
b00000000000000000000000000000001 0
b00000000000000000000000000000001 *
b00000000000000000000000000000001 @
b00000000000000000000000000000001 D
#25
0!
0#
#26
1!
1#
b00000000000000000000000000110000 %
b00000000000000000000000000110000 ;
b00000000000000000000000000110100 &
b00100000000010100000000000000010 <
b00100000000010100000000000000010 '
b001000 J
b00000 =
b01010 >
b000010 K
b00000000000000000000000001010010 B
b00000000000000000000000001010010 ,
b00000000000000000000000000000010 (
b01010 )
b01010 ?
b00000000000000000000000000000010 /
b00000000000000000000000000000010 G
b01010 C
b00000000000000000000000000000010 H
b00000000000000000000000000000010 0
b00000000000000000000000000000010 *
b00000000000000000000000000000010 @
b00000000000000000000000000000010 D
#27
0!
0#
#28
1!
1#
b00000000000000000000000000110100 %
b00000000000000000000000000110100 ;
b00000000000000000000000000111000 &
b00000001000010100101000000101010 <
b00000001000010100101000000101010 '
b000000 J
b01000 =
b01010 >
b101010 K
b00000000000000000000000001010010 A
b00000000000000000000000001010010 +
b00000000000000000000000000000010 B
b00000000000000000000000000000010 ,
b00000000000000000101000000101010 (
b00000000000000000000000001010010 .
b00000000000000000000000001010010 F
b00000000000000000101000000101010 /
b00000000000000000101000000101010 G
b111 L
b111 -
0M
03
1S
19
b00000000000000000000000000000010 /
b00000000000000000000000000000010 G
1I
11
b00000000000000000000000000000000 H
b00000000000000000000000000000000 0
b00000000000000000000000000000000 *
b00000000000000000000000000000000 @
b00000000000000000000000000000000 D
#29
0!
0#
#30
1!
1#
b00000000000000000000000000111000 %
b00000000000000000000000000111000 ;
b00000000000000000000000000111100 &
b00010001010000001111111111110011 <
b00010001010000001111111111110011 '
b000100 J
b01010 =
b00000 >
b110011 K
b00000000000000000000000000000000 A
b00000000000000000000000000000000 +
b00000000000000000000000000000000 B
b00000000000000000000000000000000 ,
b11111111111111111111111111110011 (
b11111 )
b11111 ?
b00000000000000000000000000000000 .
b00000000000000000000000000000000 F
b00000000000000000000000000000000 /
b00000000000000000000000000000000 G
b110 L
b110 -
1O
15
0S
09
0T
0:
b00000000000000000000000000001000 &
b00000 )
b00000 ?
b00000 C
#31
0!
0#
#32
1!
1#
b00000000000000000000000000001000 %
b00000000000000000000000000001000 ;
b11111111111111111111111111011000 &
b00000000000010010101000010000000 <
b00000000000010010101000010000000 '
b000000 J
b00000 =
b01001 >
b000000 K
b00000000000000000101000010000000 (
b01001 )
b01001 ?
b100 L
b100 -
1N
14
0O
05
1S
19
1T
1:
b00000000000000000000000000000001 B
b00000000000000000000000000000001 ,
b01001 C
b00000000000000000000000000001100 &
b01010 )
b01010 ?
b00000000000000000000000000000010 .
b00000000000000000000000000000010 F
b00000000000000000000000000000001 /
b00000000000000000000000000000001 G
0I
01
b00000000000000000000000000000100 H
b00000000000000000000000000000100 0
b01010 C
b00000000000000000000000000000100 *
b00000000000000000000000000000100 @
b00000000000000000000000000000100 D
#33
0!
0#
#34
1!
1#
b00000000000000000000000000001100 %
b00000000000000000000000000001100 ;
b00000000000000000000000000010000 &
b10101101010010000000000000000000 <
b10101101010010000000000000000000 '
b101011 J
b01010 =
b01000 >
b00000000000000000000000000000000 (
b00000 )
b00000 ?
b00000000000000000000000000000000 .
b00000000000000000000000000000000 F
b010 L
b010 -
1M
13
0N
04
1R
18
0S
09
0T
0:
b00000000000000000000000000000100 A
b00000000000000000000000000000100 +
b00000000000000000000000001010010 B
b00000000000000000000000001010010 ,
b00000 C
b00000000000000000000000000000000 D
b01000 )
b01000 ?
b00000000000000000000000000000100 .
b00000000000000000000000000000100 F
b00000000000000000000000000000000 /
b00000000000000000000000000000000 G
1V
b00000000000000000000000000000100 W
b00000000000000000000000001010010 X
#35
0!
0#
#36
1!
1#
b00000000000000000000000000010000 %
b00000000000000000000000000010000 ;
b00000000000000000000000000010100 &
b00000000000010000101000001000010 <
b00000000000010000101000001000010 '
b000000 J
b00000 =
b01000 >
b000010 K
b00000000000000000101000001000010 (
b00000000000000000101000001000010 /
b00000000000000000101000001000010 G
b101 L
b101 -
0M
03
1N
14
0R
08
1S
19
1T
1:
b00000000000000000000000000000000 A
b00000000000000000000000000000000 +
b01000 C
b00000000000000000000000000000100 D
0V
b00000000000000000000000000000000 W
b00000000000000000000000000000000 X
b01010 )
b01010 ?
b00000000000000000000000000000001 .
b00000000000000000000000000000001 F
b00000000000000000000000001010010 /
b00000000000000000000000001010010 G
b00000000000000000000000000101001 H
b00000000000000000000000000101001 0
b01010 C
b00000000000000000000000000101001 *
b00000000000000000000000000101001 @
b00000000000000000000000000101001 D
#37
0!
0#
#38
1!
1#
b00000000000000000000000000010100 %
b00000000000000000000000000010100 ;
b00000000000000000000000000011000 &
b00000000000010100101100001000000 <
b00000000000010100101100001000000 '
b000000 J
b00000 =
b01010 >
b000000 K
b00000000000000000101100001000000 (
b01011 )
b01011 ?
b00000000000000000000000000101001 B
b00000000000000000000000000101001 ,
b01011 C
b100 L
b100 -
b00000000000000000000000000101001 /
b00000000000000000000000000101001 G
b00000000000000000000000001010010 H
b00000000000000000000000001010010 0
b00000000000000000000000001010010 *
b00000000000000000000000001010010 @
b00000000000000000000000001010010 D
#39
0!
0#
#40
1!
1#
b00000000000000000000000000011000 %
b00000000000000000000000000011000 ;
b00000000000000000000000000011100 &
b00010001000010110000000000000011 <
b00010001000010110000000000000011 '
b000100 J
b01000 =
b01011 >
b000011 K
b00000000000000000000000000000011 (
b00000 )
b00000 ?
b00000000000000000000000000000000 .
b00000000000000000000000000000000 F
b110 L
b110 -
0N
04
1O
15
0S
09
0T
0:
b00000000000000000000000001010010 A
b00000000000000000000000001010010 +
b00000000000000000000000001010010 B
b00000000000000000000000001010010 ,
b00000 C
b00000000000000000000000000000000 D
b01011 )
b01011 ?
b00000000000000000000000001010010 .
b00000000000000000000000001010010 F
b00000000000000000000000001010010 /
b00000000000000000000000001010010 G
1I
11
b00000000000000000000000000000000 H
b00000000000000000000000000000000 0
b00000000000000000000000000101000 &
b00000000000000000000000000000000 *
b00000000000000000000000000000000 @
#41
0!
0#
#42
1!
1#
b00000000000000000000000000101000 %
b00000000000000000000000000101000 ;
b00000000000000000000000000111000 &
b00000001010000000100000000100000 <
b00000001010000000100000000100000 '
b000000 J
b01010 =
b00000 >
b100000 K
b00000000000000000100000000100000 (
b00000 )
b00000 ?
b010 L
b010 -
0O
05
1S
19
1T
1:
b00000000000000000000000000101001 A
b00000000000000000000000000101001 +
b00000000000000000000000000000000 B
b00000000000000000000000000000000 ,
b00000000000000000000000000101100 &
b01000 )
b01000 ?
b00000000000000000000000000101001 .
b00000000000000000000000000101001 F
b00000000000000000000000000000000 /
b00000000000000000000000000000000 G
0I
01
b00000000000000000000000000101001 H
b00000000000000000000000000101001 0
b01000 C
b00000000000000000000000000101001 *
b00000000000000000000000000101001 @
b00000000000000000000000000101001 D
#43
0!
0#
#44
1!
1#
b00000000000000000000000000101100 %
b00000000000000000000000000101100 ;
b00000000000000000000000000110000 &
b00100001001010010000000000000001 <
b00100001001010010000000000000001 '
b001000 J
b01001 =
b01001 >
b000001 K
b00000000000000000000000000000001 (
b00000 )
b00000 ?
1M
13
0S
09
b00000000000000000000000000000001 A
b00000000000000000000000000000001 +
b00000000000000000000000000000001 B
b00000000000000000000000000000001 ,
b00000 C
b01001 )
b01001 ?
b00000000000000000000000000000001 .
b00000000000000000000000000000001 F
b00000000000000000000000000000001 /
b00000000000000000000000000000001 G
b01001 C
b00000000000000000000000000000010 H
b00000000000000000000000000000010 0
b00000000000000000000000000000010 *
b00000000000000000000000000000010 @
b00000000000000000000000000000010 D
#45
0!
0#
#46
1!
1#
b00000000000000000000000000110000 %
b00000000000000000000000000110000 ;
b00000000000000000000000000110100 &
b00100000000010100000000000000010 <
b00100000000010100000000000000010 '
b001000 J
b00000 =
b01010 >
b000010 K
b00000000000000000000000000000000 A
b00000000000000000000000000000000 +
b00000000000000000000000000101001 B
b00000000000000000000000000101001 ,
b00000000000000000000000000000010 (
b01010 )
b01010 ?
b00000000000000000000000000000000 .
b00000000000000000000000000000000 F
b00000000000000000000000000000010 /
b00000000000000000000000000000010 G
b01010 C
#47
0!
0#
#48
1!
1#
b00000000000000000000000000110100 %
b00000000000000000000000000110100 ;
b00000000000000000000000000111000 &
b00000001000010100101000000101010 <
b00000001000010100101000000101010 '
b000000 J
b01000 =
b01010 >
b101010 K
b00000000000000000000000000101001 A
b00000000000000000000000000101001 +
b00000000000000000000000000000010 B
b00000000000000000000000000000010 ,
b00000000000000000101000000101010 (
b00000000000000000000000000101001 .
b00000000000000000000000000101001 F
b00000000000000000101000000101010 /
b00000000000000000101000000101010 G
b111 L
b111 -
0M
03
1S
19
b00000000000000000000000000000010 /
b00000000000000000000000000000010 G
1I
11
b00000000000000000000000000000000 H
b00000000000000000000000000000000 0
b00000000000000000000000000000000 *
b00000000000000000000000000000000 @
b00000000000000000000000000000000 D
#49
0!
0#
#50
1!
1#
b00000000000000000000000000111000 %
b00000000000000000000000000111000 ;
b00000000000000000000000000111100 &
b00010001010000001111111111110011 <
b00010001010000001111111111110011 '
b000100 J
b01010 =
b00000 >
b110011 K
b00000000000000000000000000000000 A
b00000000000000000000000000000000 +
b00000000000000000000000000000000 B
b00000000000000000000000000000000 ,
b11111111111111111111111111110011 (
b11111 )
b11111 ?
b00000000000000000000000000000000 .
b00000000000000000000000000000000 F
b00000000000000000000000000000000 /
b00000000000000000000000000000000 G
b110 L
b110 -
1O
15
0S
09
0T
0:
b00000000000000000000000000001000 &
b00000 )
b00000 ?
b00000 C
#51
0!
0#
#52
1!
1#
b00000000000000000000000000001000 %
b00000000000000000000000000001000 ;
b11111111111111111111111111011000 &
b00000000000010010101000010000000 <
b00000000000010010101000010000000 '
b000000 J
b00000 =
b01001 >
b000000 K
b00000000000000000101000010000000 (
b01001 )
b01001 ?
b100 L
b100 -
1N
14
0O
05
1S
19
1T
1:
b00000000000000000000000000000010 B
b00000000000000000000000000000010 ,
b01001 C
b00000000000000000000000000001100 &
b01010 )
b01010 ?
b00000000000000000000000000000010 .
b00000000000000000000000000000010 F
b00000000000000000000000000000010 /
b00000000000000000000000000000010 G
0I
01
b00000000000000000000000000001000 H
b00000000000000000000000000001000 0
b01010 C
b00000000000000000000000000001000 *
b00000000000000000000000000001000 @
b00000000000000000000000000001000 D
#53
0!
0#
#54
1!
1#
b00000000000000000000000000001100 %
b00000000000000000000000000001100 ;
b00000000000000000000000000010000 &
b10101101010010000000000000000000 <
b10101101010010000000000000000000 '
b101011 J
b01010 =
b01000 >
b00000000000000000000000000000000 (
b00000 )
b00000 ?
b00000000000000000000000000000000 .
b00000000000000000000000000000000 F
b010 L
b010 -
1M
13
0N
04
1R
18
0S
09
0T
0:
b00000000000000000000000000001000 A
b00000000000000000000000000001000 +
b00000000000000000000000000101001 B
b00000000000000000000000000101001 ,
b00000 C
b00000000000000000000000000000000 D
b01000 )
b01000 ?
b00000000000000000000000000001000 .
b00000000000000000000000000001000 F
b00000000000000000000000000000000 /
b00000000000000000000000000000000 G
1V
b00000000000000000000000000001000 W
b00000000000000000000000000101001 X
#55
0!
0#
#56
1!
1#
b00000000000000000000000000010000 %
b00000000000000000000000000010000 ;
b00000000000000000000000000010100 &
b00000000000010000101000001000010 <
b00000000000010000101000001000010 '
b000000 J
b00000 =
b01000 >
b000010 K
b00000000000000000101000001000010 (
b00000000000000000101000001000010 /
b00000000000000000101000001000010 G
b101 L
b101 -
0M
03
1N
14
0R
08
1S
19
1T
1:
b00000000000000000000000000000000 A
b00000000000000000000000000000000 +
b01000 C
b00000000000000000000000000001000 D
0V
b00000000000000000000000000000000 W
b00000000000000000000000000000000 X
b01010 )
b01010 ?
b00000000000000000000000000000001 .
b00000000000000000000000000000001 F
b00000000000000000000000000101001 /
b00000000000000000000000000101001 G
b00000000000000000000000000010100 H
b00000000000000000000000000010100 0
b01010 C
b00000000000000000000000000010100 *
b00000000000000000000000000010100 @
b00000000000000000000000000010100 D
#57
0!
0#
#58
1!
1#
b00000000000000000000000000010100 %
b00000000000000000000000000010100 ;
b00000000000000000000000000011000 &
b00000000000010100101100001000000 <
b00000000000010100101100001000000 '
b000000 J
b00000 =
b01010 >
b000000 K
b00000000000000000101100001000000 (
b01011 )
b01011 ?
b00000000000000000000000000010100 B
b00000000000000000000000000010100 ,
b01011 C
b100 L
b100 -
b00000000000000000000000000010100 /
b00000000000000000000000000010100 G
b00000000000000000000000000101000 H
b00000000000000000000000000101000 0
b00000000000000000000000000101000 *
b00000000000000000000000000101000 @
b00000000000000000000000000101000 D
#59
0!
0#
#60
1!
1#
b00000000000000000000000000011000 %
b00000000000000000000000000011000 ;
b00000000000000000000000000011100 &
b00010001000010110000000000000011 <
b00010001000010110000000000000011 '
b000100 J
b01000 =
b01011 >
b000011 K
b00000000000000000000000000000011 (
b00000 )
b00000 ?
b00000000000000000000000000000000 .
b00000000000000000000000000000000 F
b110 L
b110 -
0N
04
1O
15
0S
09
0T
0:
b00000000000000000000000000101001 A
b00000000000000000000000000101001 +
b00000000000000000000000000101000 B
b00000000000000000000000000101000 ,
b00000 C
b00000000000000000000000000000000 D
b01011 )
b01011 ?
b00000000000000000000000000101001 .
b00000000000000000000000000101001 F
b00000000000000000000000000101000 /
b00000000000000000000000000101000 G
b00000000000000000000000000000001 H
b00000000000000000000000000000001 0
b00000000000000000000000000000001 *
b00000000000000000000000000000001 @
#61
0!
0#
#62
1!
1#
b00000000000000000000000000011100 %
b00000000000000000000000000011100 ;
b00000000000000000000000000100000 &
b00000000000010000101000001000000 <
b00000000000010000101000001000000 '
b000000 J
b00000 =
b01000 >
b000000 K
b00000000000000000101000001000000 (
b01000 )
b01000 ?
b100 L
b100 -
1N
14
0O
05
1S
19
1T
1:
b00000000000000000000000000000000 A
b00000000000000000000000000000000 +
b00000000000000000000000000101001 B
b00000000000000000000000000101001 ,
b01000 C
b00000000000000000000000000000001 D
b01010 )
b01010 ?
b00000000000000000000000000000001 .
b00000000000000000000000000000001 F
b00000000000000000000000000101001 /
b00000000000000000000000000101001 G
b00000000000000000000000001010010 H
b00000000000000000000000001010010 0
b01010 C
b00000000000000000000000001010010 *
b00000000000000000000000001010010 @
b00000000000000000000000001010010 D
#63
0!
0#
#64
1!
1#
b00000000000000000000000000100000 %
b00000000000000000000000000100000 ;
b00000000000000000000000000100100 &
b00000001010010000101000000100000 <
b00000001010010000101000000100000 '
b000000 J
b01010 =
b01000 >
b100000 K
b00000000000000000101000000100000 (
b00000000000000000000000000000000 .
b00000000000000000000000000000000 F
b00000000000000000000000001010010 A
b00000000000000000000000001010010 +
b010 L
b010 -
0N
04
b00000000000000000000000001010010 .
b00000000000000000000000001010010 F
b00000000000000000000000001111011 H
b00000000000000000000000001111011 0
b00000000000000000000000001111011 *
b00000000000000000000000001111011 @
b00000000000000000000000001111011 D
#65
0!
0#
#66
1!
1#
b00000000000000000000000000100100 %
b00000000000000000000000000100100 ;
b00000000000000000000000000101000 &
b00100001010010100000000000000001 <
b00100001010010100000000000000001 '
b001000 J
b01010 =
b01010 >
b000001 K
b00000000000000000000000001111011 A
b00000000000000000000000001111011 +
b00000000000000000000000001111011 B
b00000000000000000000000001111011 ,
b00000000000000000000000000000001 (
b00000 )
b00000 ?
b00000000000000000000000001111011 .
b00000000000000000000000001111011 F
b00000000000000000000000001111011 /
b00000000000000000000000001111011 G
1M
13
0S
09
b01010 )
b01010 ?
b00000000000000000000000000000001 /
b00000000000000000000000000000001 G
b00000000000000000000000001111100 H
b00000000000000000000000001111100 0
b00000000000000000000000001111100 *
b00000000000000000000000001111100 @
b00000000000000000000000001111100 D
#67
0!
0#
#68
1!
1#
b00000000000000000000000000101000 %
b00000000000000000000000000101000 ;
b00000000000000000000000000101100 &
b00000001010000000100000000100000 <
b00000001010000000100000000100000 '
b000000 J
b01010 =
b00000 >
b100000 K
b00000000000000000000000001111100 A
b00000000000000000000000001111100 +
b00000000000000000000000000000000 B
b00000000000000000000000000000000 ,
b00000000000000000100000000100000 (
b00000 )
b00000 ?
b00000000000000000000000001111100 .
b00000000000000000000000001111100 F
b00000000000000000100000000100000 /
b00000000000000000100000000100000 G
0M
03
1S
19
b01000 )
b01000 ?
b00000000000000000000000000000000 /
b00000000000000000000000000000000 G
b01000 C
#69
0!
0#
#70
1!
1#
b00000000000000000000000000101100 %
b00000000000000000000000000101100 ;
b00000000000000000000000000110000 &
b00100001001010010000000000000001 <
b00100001001010010000000000000001 '
b001000 J
b01001 =
b01001 >
b000001 K
b00000000000000000000000000000001 (
b00000 )
b00000 ?
1M
13
0S
09
b00000000000000000000000000000010 A
b00000000000000000000000000000010 +
b00000000000000000000000000000010 B
b00000000000000000000000000000010 ,
b00000 C
b01001 )
b01001 ?
b00000000000000000000000000000010 .
b00000000000000000000000000000010 F
b00000000000000000000000000000001 /
b00000000000000000000000000000001 G
b01001 C
b00000000000000000000000000000011 H
b00000000000000000000000000000011 0
b00000000000000000000000000000011 *
b00000000000000000000000000000011 @
b00000000000000000000000000000011 D
#71
0!
0#
#72
1!
1#
b00000000000000000000000000110000 %
b00000000000000000000000000110000 ;
b00000000000000000000000000110100 &
b00100000000010100000000000000010 <
b00100000000010100000000000000010 '
b001000 J
b00000 =
b01010 >
b000010 K
b00000000000000000000000000000000 A
b00000000000000000000000000000000 +
b00000000000000000000000001111100 B
b00000000000000000000000001111100 ,
b00000000000000000000000000000010 (
b01010 )
b01010 ?
b00000000000000000000000000000000 .
b00000000000000000000000000000000 F
b00000000000000000000000000000010 /
b00000000000000000000000000000010 G
b01010 C
b00000000000000000000000000000010 H
b00000000000000000000000000000010 0
b00000000000000000000000000000010 *
b00000000000000000000000000000010 @
b00000000000000000000000000000010 D
#73
0!
0#
#74
1!
1#
b00000000000000000000000000110100 %
b00000000000000000000000000110100 ;
b00000000000000000000000000111000 &
b00000001000010100101000000101010 <
b00000001000010100101000000101010 '
b000000 J
b01000 =
b01010 >
b101010 K
b00000000000000000000000001111100 A
b00000000000000000000000001111100 +
b00000000000000000000000000000010 B
b00000000000000000000000000000010 ,
b00000000000000000101000000101010 (
b00000000000000000000000001111100 .
b00000000000000000000000001111100 F
b00000000000000000101000000101010 /
b00000000000000000101000000101010 G
b111 L
b111 -
0M
03
1S
19
b00000000000000000000000000000010 /
b00000000000000000000000000000010 G
1I
11
b00000000000000000000000000000000 H
b00000000000000000000000000000000 0
b00000000000000000000000000000000 *
b00000000000000000000000000000000 @
b00000000000000000000000000000000 D
#75
0!
0#
