example/example2.vcd
$date
	Fri Jul 16 15:30:13 2021
$end

$version
	Synopsys VCS version R-2020.12-SP1_Full64
$end

$timescale
	1s
$end

$comment Csum: 1 9dbd5495f6f474ca $end


$scope module Test_AHB_Lite $end
$var reg 1 ! clock $end
$var wire 1 " write $end
$var wire 1 # trans $end
$var wire 1 $ readyout $end
$var wire 8 % waddr [7:0] $end
$var wire 8 & wdata [7:0] $end
$var wire 8 ' rdata [7:0] $end
$var wire 8 ( value [7:0] $end

$scope module perry $end
$var wire 1 ) clock $end
$var wire 1 " write $end
$var wire 1 # trans $end
$var wire 8 % waddr [7:0] $end
$var wire 8 & wdata [7:0] $end
$var reg 1 * readyout $end
$var reg 8 + rdata [7:0] $end
$var reg 1 , mode $end
$upscope $end


$scope module conroy $end
$var wire 1 - clock $end
$var wire 1 $ readyout $end
$var wire 8 ' rdata [7:0] $end
$var reg 1 . write $end
$var reg 1 / trans $end
$var reg 8 0 waddr [7:0] $end
$var reg 8 1 wdata [7:0] $end
$var reg 8 2 value [7:0] $end
$var reg 1 3 set $end
$var reg 1 4 await $end
$upscope $end

$upscope $end

$enddefinitions $end

#0
$dumpvars
04
1!
0/
x.
0,
x*
x$
03
0#
x"
b00000111 2
bxxxxxxxx 0
bxxxxxxxx 1
bxxxxxxxx +
bxxxxxxxx '
b00000111 (
bxxxxxxxx %
bxxxxxxxx &
1)
1-
$end
#1
0!
0)
0-
#2
1!
1)
1-
0*
0$
1.
1"
1/
1#
b00000000 0
b00000000 %
b00000111 1
b00000111 &
13
#3
0!
0)
0-
#4
1!
1)
1-
1,
b00000111 +
b00000111 '
1*
1$
0.
0"
b00000111 0
b00000111 %
14
#5
0!
0)
0-
#6
1!
1)
1-
b00010110 +
b00010110 '
0/
0#
03
#7
0!
0)
0-
#8
1!
1)
1-
0*
0$
1.
1"
1/
1#
b00000000 0
b00000000 %
b00010110 2
b00010110 (
b00010110 1
b00010110 &
04
13
#9
0!
0)
0-
#10
1!
1)
1-
0,
1*
1$
0.
0"
b00010110 0
b00010110 %
14
#11
0!
0)
0-
#12
1!
1)
1-
b00001011 +
b00001011 '
0/
0#
03
#13
0!
0)
0-
#14
1!
1)
1-
0*
0$
1.
1"
1/
1#
b00000000 0
b00000000 %
b00001011 2
b00001011 (
b00001011 1
b00001011 &
04
13
#15
0!
0)
0-
#16
1!
1)
1-
1,
1*
1$
0.
0"
b00001011 0
b00001011 %
14
#17
0!
0)
0-
#18
1!
1)
1-
b00100010 +
b00100010 '
0/
0#
03
#19
0!
0)
0-
#20
1!
1)
1-
0*
0$
1.
1"
1/
1#
b00000000 0
b00000000 %
b00100010 2
b00100010 (
b00100010 1
b00100010 &
04
13
#21
0!
0)
0-
#22
1!
1)
1-
0,
1*
1$
0.
0"
b00100010 0
b00100010 %
14
#23
0!
0)
0-
#24
1!
1)
1-
b00010001 +
b00010001 '
0/
0#
03
#25
0!
0)
0-
#26
1!
1)
1-
0*
0$
1.
1"
1/
1#
b00000000 0
b00000000 %
b00010001 2
b00010001 (
b00010001 1
b00010001 &
04
13
#27
0!
0)
0-
#28
1!
1)
1-
1,
1*
1$
0.
0"
b00010001 0
b00010001 %
14
#29
0!
0)
0-
#30
1!
1)
1-
b00110100 +
b00110100 '
0/
0#
03
#31
0!
0)
0-
#32
1!
1)
1-
0*
0$
1.
1"
1/
1#
b00000000 0
b00000000 %
b00110100 2
b00110100 (
b00110100 1
b00110100 &
04
13
#33
0!
0)
0-
#34
1!
1)
1-
0,
1*
1$
0.
0"
b00110100 0
b00110100 %
14
#35
0!
0)
0-
#36
1!
1)
1-
b00011010 +
b00011010 '
0/
0#
03
#37
0!
0)
0-
#38
1!
1)
1-
0*
0$
1.
1"
1/
1#
b00000000 0
b00000000 %
b00011010 2
b00011010 (
b00011010 1
b00011010 &
04
13
#39
0!
0)
0-
#40
1!
1)
1-
1*
1$
0.
0"
b00011010 0
b00011010 %
14
#41
0!
0)
0-
#42
1!
1)
1-
b00001101 +
b00001101 '
0/
0#
03
#43
0!
0)
0-
#44
1!
1)
1-
0*
0$
1.
1"
1/
1#
b00000000 0
b00000000 %
b00001101 2
b00001101 (
b00001101 1
b00001101 &
04
13
#45
0!
0)
0-
#46
1!
1)
1-
1,
1*
1$
0.
0"
b00001101 0
b00001101 %
14
#47
0!
0)
0-
#48
1!
1)
1-
b00101000 +
b00101000 '
0/
0#
03
#49
0!
0)
0-
#50
1!
1)
1-
0*
0$
1.
1"
1/
1#
b00000000 0
b00000000 %
b00101000 2
b00101000 (
b00101000 1
b00101000 &
04
13
#51
0!
0)
0-
#52
1!
1)
1-
0,
1*
1$
0.
0"
b00101000 0
b00101000 %
14
#53
0!
0)
0-
#54
1!
1)
1-
b00010100 +
b00010100 '
0/
0#
03
#55
0!
0)
0-
#56
1!
1)
1-
0*
0$
1.
1"
1/
1#
b00000000 0
b00000000 %
b00010100 2
b00010100 (
b00010100 1
b00010100 &
04
13
#57
0!
0)
0-
#58
1!
1)
1-
1*
1$
0.
0"
b00010100 0
b00010100 %
14
#59
0!
0)
0-
#60
1!
1)
1-
b00001010 +
b00001010 '
0/
0#
03
#61
0!
0)
0-
#62
1!
1)
1-
0*
0$
1.
1"
1/
1#
b00000000 0
b00000000 %
b00001010 2
b00001010 (
b00001010 1
b00001010 &
04
13
#63
0!
0)
0-
#64
1!
1)
1-
1*
1$
0.
0"
b00001010 0
b00001010 %
14
#65
0!
0)
0-
#66
1!
1)
1-
b00000101 +
b00000101 '
0/
0#
03
#67
0!
0)
0-
#68
1!
1)
1-
0*
0$
1.
1"
1/
1#
b00000000 0
b00000000 %
b00000101 2
b00000101 (
b00000101 1
b00000101 &
04
13
#69
0!
0)
0-
#70
1!
1)
1-
1,
1*
1$
0.
0"
b00000101 0
b00000101 %
14
#71
0!
0)
0-
#72
1!
1)
1-
b00010000 +
b00010000 '
0/
0#
03
#73
0!
0)
0-
#74
1!
1)
1-
0*
0$
1.
1"
1/
1#
b00000000 0
b00000000 %
b00010000 2
b00010000 (
b00010000 1
b00010000 &
04
13
#75
0!
0)
0-
#76
1!
1)
1-
0,
1*
1$
0.
0"
b00010000 0
b00010000 %
14
#77
0!
0)
0-
#78
1!
1)
1-
b00001000 +
b00001000 '
0/
0#
03
#79
0!
0)
0-
#80
1!
1)
1-
0*
0$
1.
1"
1/
1#
b00000000 0
b00000000 %
b00001000 2
b00001000 (
b00001000 1
b00001000 &
04
13
#81
0!
0)
0-
#82
1!
1)
1-
1*
1$
0.
0"
b00001000 0
b00001000 %
14
#83
0!
0)
0-
#84
1!
1)
1-
b00000100 +
b00000100 '
0/
0#
03
#85
0!
0)
0-
#86
1!
1)
1-
0*
0$
1.
1"
1/
1#
b00000000 0
b00000000 %
b00000100 2
b00000100 (
b00000100 1
b00000100 &
04
13
#87
0!
0)
0-
#88
1!
1)
1-
1*
1$
0.
0"
b00000100 0
b00000100 %
14
#89
0!
0)
0-
#90
1!
1)
1-
b00000010 +
b00000010 '
0/
0#
03
#91
0!
0)
0-
#92
1!
1)
1-
0*
0$
1.
1"
1/
1#
b00000000 0
b00000000 %
b00000010 2
b00000010 (
b00000010 1
b00000010 &
04
13
#93
0!
0)
0-
#94
1!
1)
1-
1*
1$
0.
0"
b00000010 0
b00000010 %
14
#95
0!
0)
0-
#96
1!
1)
1-
b00000001 +
b00000001 '
0/
0#
03
#97
0!
0)
0-
#98
1!
1)
1-
0*
0$
1.
1"
1/
1#
b00000000 0
b00000000 %
b00000001 2
b00000001 (
b00000001 1
b00000001 &
04
13
